<?xml version="1.0" encoding="utf-8"?>
<COLLADA xmlns="http://www.collada.org/2005/11/COLLADASchema" version="1.4.1" xmlns:xsi="http://www.w3.org/2001/XMLSchema-instance">
  <asset>
    <contributor>
      <author>Blender User</author>
      <authoring_tool>Blender 2.90.0 commit date:2020-08-31, commit time:11:26, hash:0330d1af29c0</authoring_tool>
    </contributor>
    <created>2020-09-11T20:08:25</created>
    <modified>2020-09-11T20:08:25</modified>
    <unit name="meter" meter="1"/>
    <up_axis>Z_UP</up_axis>
  </asset>
  <library_effects/>
  <library_images/>
  <library_geometries>
    <geometry id="Cylinder_006-mesh" name="Cylinder.006">
      <mesh>
        <source id="Cylinder_006-mesh-positions">
          <float_array id="Cylinder_006-mesh-positions-array" count="42">0 10 -2 0 10 0 7.818314 6.234897 -2 7.818314 6.234897 0 9.749279 -2.225209 -2 9.749279 -2.225209 0 4.338836 -9.009689 -2 4.338836 -9.009689 0 -4.338837 -9.009688 -2 -4.338837 -9.009688 0 -9.749279 -2.22521 -2 -9.749279 -2.22521 0 -7.818315 6.234896 -2 -7.818315 6.234896 0</float_array>
          <technique_common>
            <accessor source="#Cylinder_006-mesh-positions-array" count="14" stride="3">
              <param name="X" type="float"/>
              <param name="Y" type="float"/>
              <param name="Z" type="float"/>
            </accessor>
          </technique_common>
        </source>
        <source id="Cylinder_006-mesh-normals">
          <float_array id="Cylinder_006-mesh-normals-array" count="39">0.4338837 0.9009689 0 0.9749279 0.222521 0 0.7818315 -0.6234899 0 0 -1 0 -0.7818315 -0.6234899 0 0 0 1 -0.974928 0.2225209 0 -0.4338839 0.9009689 0 0 0 -1 0.974928 0.2225209 0 -0.7818316 -0.6234899 0 -0.974928 0.2225207 0 0 0 -1</float_array>
          <technique_common>
            <accessor source="#Cylinder_006-mesh-normals-array" count="13" stride="3">
              <param name="X" type="float"/>
              <param name="Y" type="float"/>
              <param name="Z" type="float"/>
            </accessor>
          </technique_common>
        </source>
        <source id="Cylinder_006-mesh-map-0">
          <float_array id="Cylinder_006-mesh-map-0-array" count="144">1 1 0.8571429 0.5 1 0.5 0.8571429 1 0.7142857 0.5 0.8571429 0.5 0.7142857 1 0.5714286 0.5 0.7142857 0.5 0.5714286 1 0.4285715 0.5 0.5714286 0.5 0.4285715 1 0.2857143 0.5 0.4285715 0.5 0.3541321 0.0337674 0.4839827 0.196595 0.25 0.49 0.2857143 1 0.1428571 0.5 0.2857143 0.5 0.1428571 1 0 0.5 0.1428571 0.5 0.9376396 0.3996375 0.8541321 0.0337674 0.5160173 0.1965949 1 1 0.8571429 1 0.8571429 0.5 0.8571429 1 0.7142857 1 0.7142857 0.5 0.7142857 1 0.5714286 1 0.5714286 0.5 0.5714286 1 0.4285715 1 0.4285715 0.5 0.4285715 1 0.2857143 1 0.2857143 0.5 0.4839827 0.196595 0.4376395 0.3996375 0.25 0.49 0.25 0.49 0.0623604 0.3996375 0.01601725 0.1965949 0.01601725 0.1965949 0.1458679 0.03376746 0.25 0.49 0.1458679 0.03376746 0.3541321 0.0337674 0.25 0.49 0.2857143 1 0.1428571 1 0.1428571 0.5 0.1428571 1 0 1 0 0.5 0.5623604 0.3996375 0.75 0.49 0.5160173 0.1965949 0.75 0.49 0.9376396 0.3996375 0.5160173 0.1965949 0.9376396 0.3996375 0.9839827 0.196595 0.8541321 0.0337674 0.8541321 0.0337674 0.6458679 0.03376746 0.5160173 0.1965949</float_array>
          <technique_common>
            <accessor source="#Cylinder_006-mesh-map-0-array" count="72" stride="2">
              <param name="S" type="float"/>
              <param name="T" type="float"/>
            </accessor>
          </technique_common>
        </source>
        <vertices id="Cylinder_006-mesh-vertices">
          <input semantic="POSITION" source="#Cylinder_006-mesh-positions"/>
        </vertices>
        <triangles count="24">
          <input semantic="VERTEX" source="#Cylinder_006-mesh-vertices" offset="0"/>
          <input semantic="NORMAL" source="#Cylinder_006-mesh-normals" offset="1"/>
          <input semantic="TEXCOORD" source="#Cylinder_006-mesh-map-0" offset="2" set="0"/>
          <p>1 0 0 2 0 1 0 0 2 3 1 3 4 1 4 2 1 5 5 2 6 6 2 7 4 2 8 7 3 9 8 3 10 6 3 11 9 4 12 10 4 13 8 4 14 7 5 15 5 5 16 1 5 17 11 6 18 12 6 19 10 6 20 13 7 21 0 7 22 12 7 23 2 8 24 6 8 25 10 8 26 1 0 27 3 0 28 2 0 29 3 9 30 5 9 31 4 9 32 5 2 33 7 2 34 6 2 35 7 3 36 9 3 37 8 3 38 9 10 39 11 10 40 10 10 41 5 5 42 3 5 43 1 5 44 1 5 45 13 5 46 11 5 47 11 5 48 9 5 49 1 5 50 9 5 51 7 5 52 1 5 53 11 11 54 13 11 55 12 11 56 13 7 57 1 7 58 0 7 59 12 8 60 0 8 61 10 8 62 0 12 63 2 12 64 10 12 65 2 8 66 4 8 67 6 8 68 6 8 69 8 8 70 10 8 71</p>
        </triangles>
      </mesh>
    </geometry>
    <geometry id="Cone-mesh" name="Cone">
      <mesh>
        <source id="Cone-mesh-positions">
          <float_array id="Cone-mesh-positions-array" count="48">0 10 0 7.818315 6.234899 0 9.749279 -2.225208 0 4.338836 -9.009689 0 -4.338838 -9.009688 0 -9.749279 -2.225209 0 -7.818316 6.234898 0 0.2711325 0.03940266 17.83397 3.444341 2.754548 9.60499 5.928131 -0.8856868 5.72426 -6.308339 -1.398144 5.20016 2.864587 -5.769361 5.333772 5.294169 4.229737 4.872953 -5.256454 4.079539 3.805444 -2.737526 -5.75296 5.370178 0.9204699 6.380763 4.893536</float_array>
          <technique_common>
            <accessor source="#Cone-mesh-positions-array" count="16" stride="3">
              <param name="X" type="float"/>
              <param name="Y" type="float"/>
              <param name="Z" type="float"/>
            </accessor>
          </technique_common>
        </source>
        <source id="Cone-mesh-normals">
          <float_array id="Cone-mesh-normals-array" count="72">0.3745502 0.7777615 0.5047764 0.8372586 0.1910988 0.5123273 0.6719295 -0.5358461 0.5112532 0 -0.8550517 0.5185429 -0.6655216 -0.5307357 0.5247863 0 0 -1 -0.7678518 0.1752571 0.6161888 -0.338411 0.7027176 0.6258323 0.7634304 -0.5105364 0.3956344 -0.8655989 0.2730888 0.4197154 8.36986e-5 -0.906861 0.42143 0.403612 0.8167217 0.4123871 -0.3810101 0.8376535 0.391367 -0.7057765 -0.561869 0.4314891 0.8964379 0.1798688 0.4050266 0.3806169 0.7689974 0.5135894 0.8365622 0.1892413 0.5141513 0.6788721 -0.4709041 0.5633667 8.73482e-4 -0.8545404 0.5193844 -0.6700504 -0.5290927 0.5206663 -0.8197815 0.2840381 0.4972733 -0.3703685 0.7121558 0.5963734 0.3907362 0.8186898 0.4207994 0.8962246 0.1786432 0.4060395</float_array>
          <technique_common>
            <accessor source="#Cone-mesh-normals-array" count="24" stride="3">
              <param name="X" type="float"/>
              <param name="Y" type="float"/>
              <param name="Z" type="float"/>
            </accessor>
          </technique_common>
        </source>
        <source id="Cone-mesh-map-0">
          <float_array id="Cone-mesh-map-0-array" count="168">0.25 0.4366794 0.4376395 0.3996375 0.25 0.49 0.3950939 0.3657085 0.4839827 0.196595 0.4376395 0.3996375 0.4839827 0.196595 0.32775 0.08855044 0.3541321 0.0337674 0.3541321 0.0337674 0.1724689 0.08900505 0.1458679 0.03376746 0.1458679 0.03376746 0.07349199 0.2097132 0.01601725 0.1965949 0.8541321 0.0337674 0.6458679 0.03376746 0.5160173 0.1965949 0.01601725 0.1965949 0.1056666 0.365102 0.0623604 0.3996375 0.1056666 0.365102 0.25 0.49 0.0623604 0.3996375 0.32775 0.08855044 0.4276466 0.2094533 0.25 0.25 0.1056666 0.365102 0.07349199 0.2097132 0.25 0.25 0.1724689 0.08900505 0.32775 0.08855044 0.25 0.25 0.25 0.4366794 0.3438198 0.3248188 0.3950939 0.3657085 0.25 0.4366794 0.1056666 0.365102 0.25 0.25 0.07349199 0.2097132 0.1724689 0.08900505 0.25 0.25 0.4276466 0.2094533 0.3438198 0.3248188 0.25 0.25 0.25 0.4366794 0.3950939 0.3657085 0.4376395 0.3996375 0.3950939 0.3657085 0.4276466 0.2094533 0.4839827 0.196595 0.4839827 0.196595 0.4276466 0.2094533 0.32775 0.08855044 0.3541321 0.0337674 0.32775 0.08855044 0.1724689 0.08900505 0.1458679 0.03376746 0.1724689 0.08900505 0.07349199 0.2097132 0.5623604 0.3996375 0.75 0.49 0.5160173 0.1965949 0.75 0.49 0.9376396 0.3996375 0.5160173 0.1965949 0.9376396 0.3996375 0.9839827 0.196595 0.5160173 0.1965949 0.9839827 0.196595 0.8541321 0.0337674 0.5160173 0.1965949 0.01601725 0.1965949 0.07349199 0.2097132 0.1056666 0.365102 0.1056666 0.365102 0.25 0.4366794 0.25 0.49 0.25 0.4366794 0.25 0.25 0.3438198 0.3248188 0.4276466 0.2094533 0.3950939 0.3657085 0.3438198 0.3248188</float_array>
          <technique_common>
            <accessor source="#Cone-mesh-map-0-array" count="84" stride="2">
              <param name="S" type="float"/>
              <param name="T" type="float"/>
            </accessor>
          </technique_common>
        </source>
        <vertices id="Cone-mesh-vertices">
          <input semantic="POSITION" source="#Cone-mesh-positions"/>
        </vertices>
        <triangles count="28">
          <input semantic="VERTEX" source="#Cone-mesh-vertices" offset="0"/>
          <input semantic="NORMAL" source="#Cone-mesh-normals" offset="1"/>
          <input semantic="TEXCOORD" source="#Cone-mesh-map-0" offset="2" set="0"/>
          <p>15 0 0 1 0 1 0 0 2 12 1 3 2 1 4 1 1 5 2 2 6 11 2 7 3 2 8 3 3 9 14 3 10 4 3 11 4 4 12 10 4 13 5 4 14 3 5 15 4 5 16 5 5 17 5 6 18 13 6 19 6 6 20 13 7 21 0 7 22 6 7 23 11 8 24 9 8 25 7 8 26 13 9 27 10 9 28 7 9 29 14 10 30 11 10 31 7 10 32 15 11 33 8 11 34 12 11 35 15 12 36 13 12 37 7 12 38 10 13 39 14 13 40 7 13 41 9 14 42 8 14 43 7 14 44 15 15 45 12 15 46 1 15 47 12 16 48 9 16 49 2 16 50 2 17 51 9 17 52 11 17 53 3 18 54 11 18 55 14 18 56 4 19 57 14 19 58 10 19 59 6 5 60 0 5 61 5 5 62 0 5 63 1 5 64 5 5 65 1 5 66 2 5 67 5 5 68 2 5 69 3 5 70 5 5 71 5 20 72 10 20 73 13 20 74 13 21 75 15 21 76 0 21 77 15 22 78 7 22 79 8 22 80 9 23 81 12 23 82 8 23 83</p>
        </triangles>
      </mesh>
    </geometry>
  </library_geometries>
  <library_visual_scenes>
    <visual_scene id="Scene" name="Scene">
      <node id="island_03" name="island_03" type="NODE">
        <matrix sid="transform">1 0 0 0 0 1 0 0 0 0 1 0 0 0 0 1</matrix>
        <node id="island_03_001" name="island_03.001" type="NODE">
          <matrix sid="transform">1 0 0 0 0 -1 1.50996e-7 0 0 -1.50996e-7 -1 0 0 0 0 1</matrix>
          <instance_geometry url="#Cone-mesh" name="island_03.001"/>
        </node>
        <node id="island_03_collider" name="island_03_collider" type="NODE">
          <matrix sid="transform">0.9063077 -0.4226183 0 0 0.4226183 0.9063077 0 0 0 0 1 0 0 0 0 1</matrix>
          <instance_geometry url="#Cylinder_006-mesh" name="island_03_collider"/>
        </node>
      </node>
    </visual_scene>
  </library_visual_scenes>
  <scene>
    <instance_visual_scene url="#Scene"/>
  </scene>
</COLLADA>